<svg preserveAspectRatio="xMidYMid slice" version="1.1" viewBox="0 0 437.62 437.62" xmlns="http://www.w3.org/2000/svg">
  <style>@keyframes slideIn {
    from {
      opacity: 0;
      transform: translateY(10px);
    }
    to {
      opacity: 1;
      transform: translateX(0);
    }
  }
  #i1, #i2, #i3  {
    -webkit-filter: drop-shadow( 1px 1px 1px rgba(0, 0, 0, .7));
    filter: drop-shadow( 1px 1px 1px rgba(0, 0, 0, .7));
    animation-fill-mode: forwards;
    -webkit-animation-fill-mode: forwards;
    opacity: 0;
    transform: translateY(10px);
  }
  #i1 {
    animation: slideIn 2s linear 0s normal forwards;
  }
  #i2 {
    animation: slideIn 1.5s linear 1s normal forwards;
  }
  #i3 {
    animation: slideIn 1s linear 1.5s normal forwards;
  }</style>


  <g id="i1" fill="#fff" aria-label="VICTOR ARGONOV project">
    <g transform="translate(130.15,-13.628)">
      <g transform="matrix(4.196,0,0,4.2101,178.86,-111.21)">
        <path d="m4.5018 41.624-1.397 5.6409-1.3758-5.6409h-0.49742l1.6192 6.6357h0.508l1.6298-6.6357zm-5.7788 6.6357h0.55388c0.6985 0 1.3423-0.57946 1.3423-1.3626v-3.9422c0-0.77258-0.63322-1.3309-1.3529-1.3309h-0.52213c-0.74083 0-1.3635 0.56888-1.3635 1.3309v3.9422c0 0.78316 0.6438 1.3626 1.3423 1.3626zm0.074083-0.40216c-0.37042 0-0.92955-0.46305-0.92955-0.94988v-3.9316c0-0.4445 0.44272-0.96046 0.91897-0.96046h0.43747c0.46567 0 0.90839 0.50538 0.90839 0.96046v3.9316c0 0.48683-0.54856 0.94988-0.88722 0.94988zm-2.8881-6.2336v5.1541l-2.3918-5.1541h-0.46567v6.6357h0.47625v-5.3657l2.4553 5.3657h0.40217v-6.6357zm-5.7642 6.6357h0.55388c0.6985 0 1.3423-0.57946 1.3423-1.3626v-3.9422c0-0.77258-0.63322-1.3309-1.3529-1.3309h-0.52213c-0.74083 0-1.3635 0.56888-1.3635 1.3309v3.9422c0 0.78316 0.6438 1.3626 1.3423 1.3626zm0.07408-0.40216c-0.37042 0-0.92955-0.46305-0.92955-0.94988v-3.9316c0-0.4445 0.44272-0.96046 0.91897-0.96046h0.43747c0.46567 0 0.90839 0.50538 0.90839 0.96046v3.9316c0 0.48683-0.54855 0.94988-0.88722 0.94988zm-4.4277 0.40216h2.0532l0.01058-3.5983h-0.51858v3.1856h-1.4605c-0.46566 0-0.762-0.28575-0.762-0.77258v-4.2651c0-0.508 0.27517-0.77258 0.84666-0.77258h1.6616v-0.41275h-1.8521c-0.68792 0-1.143 0.381-1.143 1.1112v4.4873c0 0.74083 0.49742 1.0372 1.1642 1.0372zm-2.1102-4.2942v-1.1271c0-0.60325-0.5803-1.2145-1.2365-1.2145h-2.002v6.6357h0.49742v-2.9633h1.397l0.83608 2.9633h0.508l-0.83608-2.9739c0.59266-0.04233 0.83608-0.6218 0.83608-1.3203zm-0.48683 0.15875c0 0.37042-0.23283 0.76996-0.60325 0.76996h-1.651v-2.8575h1.3988c0.34925 0 0.85547 0.3678 0.85547 0.75938zm-4.0551 4.1355h0.48683l-1.5663-6.6357h-0.61383l-1.5769 6.6357h0.49742l0.39158-1.7039h1.9897zm-2.2754-2.1272 0.889-3.8417 0.889 3.8417zm-4.0554-2.167v-1.1271c0-0.60325-0.58031-1.2145-1.2365-1.2145h-2.002v6.6357h0.49742v-2.9633h1.397l0.83608 2.9633h0.508l-0.83608-2.9739c0.59266-0.04233 0.83608-0.6218 0.83608-1.3203zm-0.48683 0.15875c0 0.37042-0.23283 0.76996-0.60325 0.76996h-1.651v-2.8575h1.3988c0.34925 0 0.85547 0.3678 0.85547 0.75938zm-5.6584 4.1355h0.55388c0.6985 0 1.3423-0.57946 1.3423-1.3626v-3.9422c0-0.77258-0.63322-1.3309-1.3529-1.3309h-0.52213c-0.74083 0-1.3635 0.56888-1.3635 1.3309v3.9422c0 0.78316 0.6438 1.3626 1.3423 1.3626zm0.07408-0.40216c-0.37042 0-0.92955-0.46305-0.92955-0.94988v-3.9316c0-0.4445 0.44272-0.96046 0.91897-0.96046h0.43747c0.46566 0 0.90839 0.50538 0.90839 0.96046v3.9316c0 0.48683-0.54856 0.94988-0.88722 0.94988zm-3.8383 0.40216h0.49742v-6.223h1.3686v-0.41275h-3.2207v0.41275h1.3547zm-3.4705 0h1.5787v-0.41275h-1.4834c-0.47625 0-0.95072-0.46305-0.95072-0.9393v-3.9105c0-0.43392 0.52739-0.96046 1.0248-0.96046h1.4094v-0.41275h-1.5999c-0.67733 0-1.3211 0.67471-1.3211 1.3626v3.9846c0 0.70908 0.68614 1.2885 1.3423 1.2885zm-2.8397 0h0.49742v-6.6357h-0.49742zm-1.3034-6.6357-1.397 5.6409-1.3758-5.6409h-0.49742l1.6192 6.6357h0.508l1.6298-6.6357zm29.816 8.9919v0.62354h-0.63253v0.3454h0.63253v2.376c0 0.20483 0.06162 0.3619 0.16934 0.4652s0.257 0.14975 0.42058 0.14975h0.0039l0.59238-0.08555v-0.35437l-0.53376 0.08887c-0.07156 0.01192-0.13353-0.01334-0.1819-0.06272s-0.0798-0.12335-0.0798-0.20118v-2.376h0.7563v-0.34541h-0.7563v-0.62354zm0.05517 0.05499v0.62354h-0.63253v0.23542h0.63253v2.431c0 0.38818 0.22828 0.55996 0.53474 0.55996l0.54115-0.07819v-0.24181l-0.46947 0.07819c-0.18008 0.03-0.32599-0.13361-0.32599-0.31816v-2.431h0.7563v-0.23542h-0.7563v-0.62354zm-2.1502 0.56865c-0.2333 0-0.40615 0.05243-0.51864 0.16676-0.11249 0.11432-0.15643 0.28224-0.15643 0.49324v2.0928c0 0.19518 0.06119 0.34637 0.17689 0.44392 0.1157 0.09756 0.27772 0.13858 0.4717 0.13858l1.0276-0.07809v-0.34997l-0.99515 0.0781c-0.10211 8e-3 -0.17543-0.03091-0.22502-0.07869-0.0496-0.04774-0.07701-0.1151-0.07701-0.19847v-2.074c0-0.11526 0.0267-0.18355 0.0734-0.22548 0.04671-0.04191 0.12276-0.06342 0.23585-0.06342h0.95544v-0.34527zm0 0.10922h0.85677v0.12683h-0.84353c-0.12816 0-0.2349 0.02495-0.31046 0.09278-0.07555 0.06784-0.11071 0.17242-0.11071 0.30534v2.074c0 0.10755 0.03805 0.20601 0.11071 0.27599 0.07266 0.06997 0.17745 0.10922 0.30324 0.10922l0.88324-0.05436v0.13388l-0.91573 0.05436c-0.17737 0.01052-0.31144-0.03848-0.39951-0.11274s-0.13718-0.1878-0.13718-0.36171v-2.0928c0-0.19627 0.04039-0.33195 0.12515-0.41808s0.2214-0.1327 0.43801-0.1327zm6.3e-5 -0.10931c-0.23304 0-0.40536 0.05175-0.51787 0.16607s-0.15678 0.28219-0.15678 0.49343v2.0937c0 0.19552 0.06122 0.34696 0.17685 0.44446s0.27796 0.1387 0.47169 0.1387h0.0022l1.0245-0.08248v-0.35228l-0.99867 0.08322c-0.10007 0.0083-0.1713-0.02118-0.22094-0.07082-0.04964-0.04965-0.07796-0.12245-0.07796-0.20535v-2.0745c0-0.11497 0.02714-0.18202 0.07389-0.22401 0.04675-0.04198 0.12276-0.06469 0.23609-0.06469h0.95495v-0.34541zm0 0.05499c-0.44991 0-0.61947 0.19725-0.61947 0.60452v2.0937c0 0.36909 0.2217 0.52817 0.59336 0.52817l0.97158-0.07819v-0.24181l-0.93894 0.07819c-0.22742 0.01894-0.35863-0.14001-0.35863-0.33092v-2.0745c0-0.24818 0.1239-0.34369 0.36516-0.34369h0.89977v-0.23542zm-2.6775-0.05489c-0.37692 0-0.70395 0.36453-0.70395 0.78684v1.7945c0 0.39503 0.29372 0.75396 0.71117 0.75396h0.0012l1.0505-0.08455v-0.35116l-1.0048 0.08573c-0.08451 0.0072-0.18121-0.05682-0.25631-0.15502s-0.12274-0.22692-0.12274-0.30652v-0.6835h1.4861v-1.0663c0-0.45049-0.3808-0.77392-0.7244-0.77392zm0.07822 0.34527h0.31407c0.07937 0 0.18234 0.05736 0.26233 0.14563 0.07999 0.08828 0.13477 0.204 0.13477 0.29595v0.70229h-1.1143v-0.70229c0-0.11343 0.05547-0.22597 0.13598-0.30886 0.08051-0.0829 0.18428-0.13271 0.26714-0.13271zm1.0273 1.4405v-1.0119c0-0.42-0.36175-0.71896-0.66821-0.71896h-0.43714c-0.33906 0-0.64865 0.33714-0.64865 0.73168v1.7948c0 0.36909 0.27046 0.69987 0.65517 0.69987l0.9961-0.08043v-0.24182l-0.94394 0.08043c-0.22779 0.01942-0.43999-0.31806-0.43999-0.51533v-0.73831zm-1.0271-1.4954h0.31325c0.20865 0 0.45303 0.27351 0.45303 0.49623v0.7574h-1.2258v-0.7574c0-0.2609 0.2509-0.49623 0.45956-0.49623zm-2.0338-1.143v0.4721h0.37905v-0.4721zm0 0.85261v3.5103c0 0.10841-0.02712 0.18275-0.07822 0.23135-0.05109 0.04858-0.13291 0.07751-0.25751 0.07751l-0.38146-0.02375v0.34409l0.4332 0.02375c0.21707 0 0.38738-0.04858 0.50058-0.16089 0.11321-0.1123 0.16245-0.27998 0.16245-0.49795v-3.5044zm0.05566-0.43511h0.26734v-0.36272h-0.26734zm-0.71751 4.5436h0.37845c0.41731 0 0.6064-0.18455 0.6064-0.60454v-3.4491h-0.26734v3.4554c0 0.23545-0.12389 0.36273-0.39122 0.36273h-0.32629zm-1.4319-4.1085c-0.42123 0-0.75569 0.39186-0.75569 0.76805v1.7945c0 0.4182 0.35142 0.77275 0.76291 0.77275h0.33934c0.41277 0 0.76291-0.36627 0.76291-0.77275v-1.7945c0-0.41293-0.35726-0.76805-0.75689-0.76805zm0.02647 0.34527h0.29963c0.05834 0 0.16699 0.05021 0.2515 0.13271 0.08451 0.08247 0.14681 0.19207 0.14681 0.29594v1.7757c0 0.07401-0.05163 0.18987-0.13116 0.28068-0.07954 0.09081-0.18399 0.15502-0.27316 0.15502h-0.29361c-0.08113 0-0.18497-0.06395-0.26473-0.15502s-0.13237-0.20728-0.13237-0.28068v-1.7757c0-0.09516 0.05553-0.20574 0.13598-0.29007 0.08045-0.08432 0.18402-0.13858 0.26112-0.13858zm-0.01961 2.936h0.33933c0.37818 0 0.70733-0.34351 0.70733-0.71896v-1.7948c0-0.38181-0.33567-0.71259-0.70081-0.71259h-0.35237c-0.3847 0-0.70081 0.36896-0.70081 0.71259v1.7948c0 0.38818 0.32915 0.71896 0.70733 0.71896zm0.01956-0.24181c-0.21517 0-0.45304-0.29897-0.45304-0.48988v-1.7757c0-0.22909 0.2509-0.48351 0.45304-0.48351h0.30021c0.16953 0 0.45304 0.23533 0.45304 0.48351v1.7757c0 0.19091-0.23134 0.48988-0.45956 0.48988zm-2.8447-3.0394v3.3352h0.37784v-2.5613c0-0.28813 0.18058-0.42862 0.39471-0.42862h0.70765v-0.34528h-0.72083c-0.15691 0-0.27637 0.07514-0.38745 0.15736v-0.15736zm0.05521 3.2812h0.26734v-2.5073c0-0.31182 0.20865-0.48364 0.44991-0.48364h0.65204v-0.23545h-0.66508c-0.18257 0-0.33254 0.06363-0.44339 0.17818v-0.17818h-0.26082zm-2.0731-3.2812c-0.19659 0-0.28197 0.09106-0.35506 0.15503v-0.14803h-0.37181v4.3242h0.37181v-0.99595h0.7838c0.20274 0 0.41997-0.05663 0.53754-0.17491 0.11757-0.1183 0.17809-0.3405 0.17808-0.56315l-5.8e-5 -1.9284c-5e-6 -0.1933-0.06684-0.39331-0.16773-0.50171-0.1009-0.10841-0.27996-0.16705-0.46362-0.16705zm-0.03855 0.36995h0.48647c0.10858 0 0.19936 0.0521 0.23524 0.1025 0.03588 0.05039 0.06285 0.15692 0.06286 0.25977l5.8e-5 1.8967c2e-6 0.09181-0.03215 0.21042-0.09027 0.2612-0.05812 0.05081-0.19214 0.08223-0.30527 0.08224h-0.70559v-2.2432c0-0.08935 0.03231-0.18159 0.08793-0.24893 0.05562-0.06733 0.13199-0.11035 0.22858-0.11035zm-0.63301 3.907h0.26082v-0.99578h0.88678c0.3847 0 0.61292-0.21 0.61292-0.63636v-2.0236c0-0.36909-0.18257-0.56636-0.52816-0.56636h-0.56076c-0.22821 0-0.37166 0.13364-0.41078 0.17818v-0.17182h-0.26082zm0.26082-1.2503v-2.2973c0-0.20364 0.14345-0.41364 0.37166-0.41364h0.53467c0.24126 0 0.30646 0.15273 0.30646 0.36909v1.9918c0 0.21-0.15649 0.35-0.40427 0.35z" />
      </g>
    </g>
  </g>
  <g id="i2" fill="#fff" aria-label="2032">
    <g transform="translate(-.918)">
      <g transform="translate(130.15,-13.628)">
        <path d="m125.72 371.87h28.713v-7.6202l-17.436 0.0919 13.469-9.8359c4.8966-4.6042 4.2848-8.6994 3.586-13.702-0.4472-3.1229-4.4971-6-9.6645-6h-17.582v7.502h14.438c1.1686 0 2.7484 0.3101 3.312 1.7144l0.0322 3.9597-18.868 13.55zm-8.9187-19.653c4.4867-2.8295 4.6706-3.9844 4.6706-8.9737 0-3.6061-1.9293-8.5141-8.7446-8.5141h-19.475v7.502h15.051c3.1846 0 3.5484 1.6143 3.6498 3.3404-0.0497 2.7446-0.51842 3.96-3.5759 3.9937h-9.6807l0.0066 7.5726h11.268c1.6694 0 2.562 1.2912 2.562 2.3552v3.7892c0 1.1823-2.4782 1.478-4.1467 1.4217l-15.664-0.52919v7.0911c6.8161 0.74375 13.225 1.0122 19.528 1.1572 5.1737 0.11893 10.446-1.9526 10.321-9.1504-0.18324-5.5471-0.32392-8.6106-5.7709-11.056zm-48.826 20.107h10.434c6.8353 0 10.49-2.5206 10.49-8.0903v-21.237c0-5.0847-3.0421-8.7844-10.574-8.7968l-9.9524-0.0163c-6.1338-0.0116-10.584 2.5349-10.657 8.7968l-0.23072 19.667c-0.06438 5.4864 2.2425 9.6778 10.49 9.6778zm2.0584-7.5611c-1.7143 0-2.7127-1.45-2.7113-2.5159l0.02333-17.929c2e-3 -1.537 1.5479-2.6748 3.2172-2.6748h5.7877c1.4852 0 2.8663 0.86244 2.8663 2.1282v18.982c0 1.2259-1.2822 2.0099-2.5324 2.0099zm-45.399 7.0319h28.713v-7.6202l-17.436 0.0919 13.469-9.8359c4.8966-4.6042 4.2848-8.6994 3.586-13.702-0.4472-3.1229-4.4971-6-9.6645-6h-17.582v7.502h14.438c1.1686 0 2.7484 0.31011 3.312 1.7144l0.0322 3.9597-18.868 13.55z" fill="#fff" />
      </g>
    </g>
  </g>
  <g id="i3" fill="#fff" aria-label="失落未来的传奇技术歌剧">
    <g transform="matrix(.59289 0 0 .59289 275.98 259.35)">
      <path d="m-48.145 245.04c0.08-1.52 0.12-3 0.12-4.32h6.88v4.32zm12.64-11.56v4.6h-12.52v-4.6zm0.4 27.32h-9.64v-6.04h9.64zm-3.36-20.08h5.76v-9.88h-18.16v8.72c0 6.2-0.28 15.2-3.2 21.72 0.48 0.36 1.72 1.64 2.16 2.28 2.16-4.52 3.12-10.44 3.56-15.84h7.2v4.48h-6.2v12.92h2.6v-1.76h9.64v1.64h2.68v-12.8h-6.04v-4.48h7.44v-2.68h-7.44zm12.52-7.2h-2.68v22h2.68zm4.2-3.92v32.24c0 0.6-0.2 0.76-0.8 0.8-0.52 0-2.32 0-4.28-0.04 0.36 0.8 0.76 2.04 0.88 2.8 2.8 0 4.48-0.08 5.56-0.56 1-0.48 1.4-1.28 1.4-3.04v-32.2zm-57.24 14.24c0 0.4-0.16 0.52-0.64 0.56-0.48 0-2.08 0-3.88-0.04 0.36 0.64 0.76 1.56 0.88 2.28 2.48 0 4.08-0.04 5.04-0.44 1-0.36 1.24-1 1.24-2.36v-10.28h2.92v-2.48h-19.96v2.48h14.4zm-5.32-2.44h-5.08v-3.68h5.08zm2.24-5.68h-9.6v9.16h2.28v-1.48h7.32zm-2.16 19.08v4h-5.36v-4zm2.32 6.08v-8.2h-9.96v9.84h2.28v-1.64zm16.92-22.2h4.72c-0.4 2.52-0.88 5.2-1.48 6.96l2.44 0.56c0.8-2.52 1.68-6.52 2.24-9.92l-1.96-0.48-0.48 0.12h-10.04c0.48-2.08 0.88-4.28 1.2-6.52l-2.84-0.44c-0.8 6.12-2.28 12.04-4.84 15.84 0.72 0.36 2 1.12 2.52 1.56 1.28-2.08 2.36-4.72 3.24-7.68h2.4v5.84c0 3.16-1 13.2-8.48 18.36v-0.56-12.08h3.32v-2.52h-20.72v2.52h14.76v12.04c0 0.48-0.16 0.56-0.68 0.6-0.48 0.04-2.08 0.04-3.92 0 0.32 0.68 0.72 1.72 0.84 2.4 2.48 0 4.12 0 5.12-0.4 0.88-0.36 1.16-0.92 1.24-1.88 0.56 0.56 1.36 1.76 1.68 2.36 5.96-4.2 7.92-11.64 8.28-14.76 0.4 3.04 2.32 10.76 8 14.72 0.4-0.68 1.32-1.92 1.84-2.48-7.28-5.04-8.4-15.24-8.4-18.32zm-36.88-3.48c-1.6-1.56-4.8-4-7.2-5.64l-2.16 1.8c2.44 1.76 5.6 4.32 7.12 5.96zm3.36 6.6v-2.92h-15.28v-10h-3.2v10h-15.68v2.92h14.84c-3.52 6.72-9.84 13.24-16.04 16.44 0.68 0.6 1.68 1.76 2.2 2.52 5.48-3.12 10.84-8.56 14.68-14.72v19.32h3.2v-20.52c3.96 6.08 9.44 12.12 14.28 15.6 0.52-0.8 1.6-2 2.36-2.56-5.36-3.36-11.72-9.92-15.44-16.08zm-62.4 4.48c-1.44 0.44-2.96 0.88-4.4 1.28v-7.92h4.4v-2.8h-4.4v-8h-2.92v8h-5.12v2.8h5.12v8.72c-2.12 0.6-4.04 1.08-5.64 1.44l0.84 2.92 4.8-1.4v10.44c0 0.56-0.24 0.76-0.8 0.76-0.48 0.04-2.2 0.04-4.12 0 0.4 0.8 0.84 1.96 0.92 2.72 2.76 0.04 4.44-0.04 5.44-0.52 1.04-0.48 1.48-1.28 1.48-2.96v-11.32c1.56-0.48 3.2-0.96 4.8-1.44zm17.84 0.28c-1.44 3.64-3.68 6.72-6.44 9.2-2.52-2.56-4.52-5.72-5.88-9.2zm1.88-2.88-0.48 0.12h-6.36v-5.96h9.56v-2.76h-9.56v-6.28h-2.92v6.28h-9.36v2.76h9.36v5.96h-8.56v2.76h1.32l-0.12 0.04c1.56 4.28 3.76 7.96 6.56 10.96-3.24 2.36-6.96 4.04-10.84 5.08 0.56 0.64 1.28 1.88 1.6 2.68 4.08-1.28 7.96-3.12 11.36-5.72 2.96 2.6 6.52 4.52 10.68 5.8 0.44-0.8 1.28-1.96 1.92-2.56-4-1.08-7.44-2.8-10.32-5.16 3.6-3.32 6.44-7.68 8.12-13.16zm177.54-46.757c-3.5679-1.6859-9.6842-4.156-14.664-5.8419 0.11762-0.27445 0.23524-0.58811 0.35287-0.90177h14.899v-2.5877h-14.193c0.23524-1.0978 0.43128-2.3524 0.5489-3.6463h-2.9798c-0.11762 1.333-0.31366 2.5485-0.5489 3.6463h-13.84v2.5877h12.978c-1.6859 3.6071-5.3322 5.6066-13.605 6.626 0.47049 0.5489 1.0978 1.6467 1.333 2.274 7.3318-0.98018 11.409-2.8229 13.762-5.8419 4.9009 1.7251 10.625 4.156 13.84 5.7635zm-15.604 10.625v5.3322h-9.9586v-5.3322zm2.8229 7.7238v-10.115h-15.565v12.664h2.7837v-2.5485zm15.291-15.918h-34.894v2.6661h26.543v14.154c0 0.66653-0.19604 0.82336-0.98018 0.90177-0.78414 0-3.4894 0.0392-6.4692-0.0784 0.43128 0.82335 0.94097 1.9604 1.0978 2.7837 3.6071 0 6.0379-0.0392 7.4494-0.47049 1.4115-0.47048 1.8427-1.2938 1.8427-3.0974v-14.193h5.4106zm-65.79-15.252c-2.1956 5.9595-5.8419 11.801-9.6842 15.565 0.5489 0.66652 1.3723 2.1564 1.6859 2.8229 1.2938-1.3722 2.6269-2.9405 3.8423-4.6657v21.878h2.8621v-26.308c1.5291-2.7053 2.9013-5.5674 4.0383-8.4296zm26.739 14.467v-2.7053h-14.938c0.43128-1.5291 0.90177-3.0974 1.2938-4.6657h11.88v-2.7053h-11.135c0.35286-1.333 0.70573-2.7053 1.0194-3.9207l-2.9013-0.39208c-0.31366 1.3723-0.70573 2.8229-1.0586 4.3128h-7.6454v2.7053h6.9005c-0.43128 1.5291-0.86256 3.1366-1.2938 4.6657h-7.8415v2.7053h7.0181c-0.82335 2.7837-1.6467 5.3714-2.3916 7.4102h13.919c-1.6859 1.9604-3.8031 4.3128-5.8027 6.4692-1.2546-0.86256-2.5485-1.6859-3.7639-2.4308l-2.078 1.7643c3.6463 2.3132 8.0767 5.7635 10.194 7.9983l2.1564-2.1564c-1.0586-1.0586-2.5877-2.3132-4.2736-3.5679 2.9798-3.2934 6.2732-6.9789 8.6256-9.7234l-1.9996-1.2938-0.50969 0.19604h-12.507c0.43128-1.4115 0.94097-3.019 1.4115-4.6657zm-62.026 2.47h-8.2335v-8.1943h8.2335zm-8.2335 11.997v-9.4097h8.2335v9.4097zm3.2934-29.17c-0.27445 1.8427-0.98018 4.4696-1.5683 6.3516h-4.3912v28.543h2.6661v-3.0974h10.9v-25.446h-6.5084c0.66652-1.6859 1.3723-3.8423 2.0388-5.7635zm26.779 6.234h-11.723c0.66652-1.8427 1.2154-3.7247 1.6859-5.6458l-2.7837-0.66652c-1.2546 5.3714-3.3718 10.782-5.9987 14.232 0.62732 0.39208 1.8819 1.1762 2.3916 1.6467 1.3723-1.8427 2.5877-4.2344 3.6855-6.8613h9.9586c-0.50969 15.604-1.0978 21.564-2.3916 22.936-0.39207 0.5097-0.82335 0.58811-1.6075 0.58811-0.90177 0-3.2542 0-5.8027-0.23524 0.5489 0.82335 0.90177 1.9996 0.98018 2.8621 2.1956 0.11762 4.4304 0.19603 5.8027 0.0392 1.333-0.11763 2.2348-0.47049 3.0974-1.5683 1.5683-1.9212 2.078-7.9591 2.7053-25.838zm-6.1947 17.643c-1.2546-2.3132-3.9599-6.0771-6.1555-8.8608l-2.274 1.333c2.1564 2.8229 4.7833 6.7044 5.9595 9.0569zm-32.346-3.7247v-2.7837h-15.84v-9.7626h14.193v-2.7837h-14.193v-4.6657h-3.019v4.6657h-13.879v2.7837h13.879v9.7626h-15.722v2.7837h13.762c-3.5679 4.7833-9.3313 9.3705-14.585 11.645 0.62731 0.58811 1.5683 1.6859 2.0388 2.3916 5.1362-2.5485 10.704-7.2533 14.507-12.429v14.115h3.019v-14.193c3.8031 5.1754 9.4097 10.076 14.624 12.664 0.47049-0.78415 1.4115-1.882 2.0388-2.4701-5.293-2.274-11.096-6.9397-14.664-11.723zm-29.562-10.664c1.5291 2.274 3.019 5.4498 3.5286 7.4102l2.7445-1.0586c-0.5489-2.0388-2.1564-5.0577-3.7247-7.3318zm20.701 7.4886c1.4115-1.9212 3.1366-5.0185 4.5088-7.6846l-2.9798-0.94097c-0.94097 2.3524-2.6269 5.685-3.9599 7.8022zm-30.464 1.9996v-2.8621h-15.761v-6.7436h13.056v-2.8621h-13.056v-6.3908h-3.019v6.3908h-12.664v2.8621h12.664v6.7436h-15.487v2.8621h13.84c-3.5286 5.0577-9.4489 9.9194-14.899 12.35 0.66652 0.5489 1.6075 1.6859 2.1172 2.3916 5.1362-2.5877 10.625-7.2533 14.428-12.468v14.664h3.019v-14.82c3.8031 5.2146 9.3705 10.076 14.546 12.625 0.50969-0.74493 1.4507-1.8819 2.1172-2.4308-5.4498-2.3916-11.409-7.2925-14.977-12.311zm-64.653-10.233h2.8229v-3.2934h10.586v3.2934h2.8229v-3.2934h9.1353v-2.6269h-9.1353v-2.7053h-2.8229v2.7053h-10.586v-2.7053h-2.8229v2.7053h-8.8216v2.6269h8.8216zm-6.9789 1.4899c2.1956 1.2154 5.1362 2.9798 6.5476 4.156l1.8035-2.1956c-1.5291-1.137-4.4696-2.8229-6.6652-3.9207zm5.7635 9.3313c-1.4899-1.2154-4.4304-2.8229-6.7436-3.7639l-1.6467 1.9996c2.3132 1.0586 5.1754 2.7837 6.626 4.0384zm-5.489 16.193c2.3916-2.8621 5.2146-6.7044 7.4102-9.9586l-1.7643-2.078c-2.4701 3.5287-5.6458 7.4494-7.763 9.8018zm15.252-23.093h10.743c-1.3722 1.6859-3.215 3.2542-5.3322 4.6264-2.2348-1.3722-4.156-2.8229-5.6458-4.352zm11.017 13.919v5.3322h-12.311v-5.3322zm2.0388-16.349-0.47049 0.15683h-10.821c0.58811-0.82335 1.0978-1.5683 1.6075-2.3524l-2.8621-0.5489c-1.6859 2.9013-4.7833 6.5476-8.8608 9.2921 0.66652 0.39207 1.5683 1.1762 2.078 1.7643 1.5683-1.1762 3.0582-2.4701 4.3128-3.7639 1.4507 1.3722 3.0974 2.7053 4.9401 3.9599-3.4894 1.9212-7.4886 3.3718-11.135 4.1952 0.54891 0.50969 1.1762 1.6467 1.4507 2.3524 0.86256-0.23524 1.7643-0.50969 2.6269-0.78414v11.409h2.7837v-1.6859h12.311v1.6859h2.8621v-11.645h-17.212c2.9798-0.98019 5.9595-2.3524 8.7432-3.9991 3.4894 2.0388 7.2926 3.7247 10.9 4.7441 0.43128-0.74493 1.2154-1.8035 1.8427-2.3916-3.3718-0.86256-7.0181-2.2348-10.272-3.9207 2.8621-2.0388 5.3714-4.5088 7.0181-7.2926zm-35.169 10.272v-2.9013h-16.428c0.23525-1.8035 0.31366-3.6071 0.31366-5.4106v-2.3524h12.782v-2.9013h-12.782v-6.8221h-2.9798v6.8221h-7.4886c0.78415-1.8035 1.4115-3.6855 1.9604-5.6066l-3.0582-0.66652c-1.4115 5.293-3.8423 10.468-6.8613 13.801 0.78415 0.31366 2.1956 1.0586 2.8229 1.5291 1.3723-1.6859 2.6661-3.8031 3.8423-6.1555h8.7824v2.3524c0 1.8035-0.0784 3.6071-0.39207 5.4106h-15.291v2.9013h14.624c-1.6467 5.0577-5.6458 9.7234-15.095 12.899 0.62732 0.5881 1.5291 1.8035 1.8035 2.5093 9.9978-3.4502 14.311-8.5864 16.114-14.193 3.019 7.2926 8.1551 12.037 16.271 14.154 0.47048-0.82335 1.2938-2.0388 1.9604-2.6661-7.9591-1.7643-13.095-6.1163-15.801-12.703z" />
    </g>
  </g>
</svg>